\relax 
\providecommand\hyper@newdestlabel[2]{}
\providecommand\HyperFirstAtBeginDocument{\AtBeginDocument}
\HyperFirstAtBeginDocument{\ifx\hyper@anchor\@undefined
\global\let\oldcontentsline\contentsline
\gdef\contentsline#1#2#3#4{\oldcontentsline{#1}{#2}{#3}}
\global\let\oldnewlabel\newlabel
\gdef\newlabel#1#2{\newlabelxx{#1}#2}
\gdef\newlabelxx#1#2#3#4#5#6{\oldnewlabel{#1}{{#2}{#3}}}
\AtEndDocument{\ifx\hyper@anchor\@undefined
\let\contentsline\oldcontentsline
\let\newlabel\oldnewlabel
\fi}
\fi}
\global\let\hyper@last\relax 
\gdef\HyperFirstAtBeginDocument#1{#1}
\providecommand\HyField@AuxAddToFields[1]{}
\providecommand\HyField@AuxAddToCoFields[2]{}
\citation{2015powergridattack}
\citation{sridhar2012cyber}
\citation{SCADA}
\citation{PLCdiag}
\citation{PLCdiag}
\citation{PLCdiag}
\citation{Chen:2014:DSH:2541940.2541967,chen2016diannao,esmaeilzadeh2012neural,wang2017dlau}
\@writefile{toc}{\contentsline {section}{\numberline {1}Introduction}{1}{section.1}}
\newlabel{sec:intro}{{1}{1}{Introduction}{section.1}{}}
\citation{langner2011stuxnet}
\citation{2015powergridattack}
\@writefile{lof}{\contentsline {figure}{\numberline {1}{\ignorespaces A diagram of a power-grid system. Attacks can happen in {\fontfamily  {pzd}\fontencoding  {U}\fontseries  {m}\fontshape  {n}\selectfont  \char 172} sensors {\fontfamily  {pzd}\fontencoding  {U}\fontseries  {m}\fontshape  {n}\selectfont  \char 173} actuators {\fontfamily  {pzd}\fontencoding  {U}\fontseries  {m}\fontshape  {n}\selectfont  \char 174} controllers and {\fontfamily  {pzd}\fontencoding  {U}\fontseries  {m}\fontshape  {n}\selectfont  \char 175} networks.\relax }}{2}{figure.caption.2}}
\providecommand*\caption@xref[2]{\@setref\relax\@undefined{#1}}
\newlabel{fig:SCADA}{{1}{2}{A diagram of a power-grid system. Attacks can happen in \ding {172} sensors \ding {173} actuators \ding {174} controllers and \ding {175} networks.\relax }{figure.caption.2}{}}
\@writefile{lof}{\contentsline {figure}{\numberline {2}{\ignorespaces Programmable logic controller block diagram \cite  {PLCdiag}\relax }}{2}{figure.caption.3}}
\newlabel{fig:PLCdiag}{{2}{2}{Programmable logic controller block diagram \cite {PLCdiag}\relax }{figure.caption.3}{}}
\@writefile{toc}{\contentsline {section}{\numberline {2}methodology}{2}{section.2}}
\newlabel{sec:methodology}{{2}{2}{methodology}{section.2}{}}
\citation{humayed2017cyber}
\citation{lee2015past}
\citation{ozsoy2016hardware,demme2013feasibility,patel2017analyzing,bahador2014hpcmalhunter}
\citation{wang2015confirm}
\citation{wang2013numchecker,singh2017detection}
\citation{wang2016hardware}
\@writefile{toc}{\contentsline {section}{\numberline {3}Security Problem and Threat \\Model}{3}{section.3}}
\newlabel{sec:SecurityConsiderations}{{3}{3}{Security Problem and Threat \\Model}{section.3}{}}
\@writefile{toc}{\contentsline {section}{\numberline {4}Deep Learning Algorithm Design for Improving Security}{3}{section.4}}
\newlabel{sec:solution}{{4}{3}{Deep Learning Algorithm Design for Improving Security}{section.4}{}}
\@writefile{toc}{\contentsline {subsection}{\numberline {4.1}Challenges}{3}{subsection.4.1}}
\citation{scholkopf2001estimating}
\citation{rousseeuw1999fast}
\citation{simpson1997introduction}
\citation{breunig2000lof}
\citation{liu2008isolation}
\citation{wei2005assumption}
\citation{goldstein2012histogram}
\citation{kriegel2008angle}
\citation{scholkopf2001estimating}
\citation{rousseeuw1999fast}
\citation{simpson1997introduction}
\citation{breunig2000lof}
\citation{liu2008isolation}
\citation{wei2005assumption}
\citation{goldstein2012histogram}
\citation{kriegel2008angle}
\citation{hochreiter1997long}
\@writefile{toc}{\contentsline {subsection}{\numberline {4.2}Algorithm Selection}{4}{subsection.4.2}}
\@writefile{toc}{\contentsline {subsection}{\numberline {4.3}Proposed Algorithm}{4}{subsection.4.3}}
\newlabel{sec:solution:overview}{{4.3}{4}{Proposed Algorithm}{subsection.4.3}{}}
\@writefile{toc}{\contentsline {subsection}{\numberline {4.4}Offline Training and Reconstruction Error Profiling}{4}{subsection.4.4}}
\newlabel{sec:solution:offline}{{4.4}{4}{Offline Training and Reconstruction Error Profiling}{subsection.4.4}{}}
\@writefile{lot}{\contentsline {table}{\numberline {1}{\ignorespaces Anomaly detection methods on detecting zero-day attacks against a real ARM Cortex A8 PLC controlling a real power-grid. Our proposed LSTM+RED approach performs better than all evaluated methods.\relax }}{5}{table.caption.4}}
\newlabel{tab:anomalybmark}{{1}{5}{Anomaly detection methods on detecting zero-day attacks against a real ARM Cortex A8 PLC controlling a real power-grid. Our proposed LSTM+RED approach performs better than all evaluated methods.\relax }{table.caption.4}{}}
\@writefile{lof}{\contentsline {figure}{\numberline {3}{\ignorespaces Overview of our proposed deep temporal model and statistical test based method. Offline profiling: {\fontfamily  {pzd}\fontencoding  {U}\fontseries  {m}\fontshape  {n}\selectfont  \char 172} Train a deep learning model with only normal data, to predict the normal behavior of the controller. {\fontfamily  {pzd}\fontencoding  {U}\fontseries  {m}\fontshape  {n}\selectfont  \char 173} Collect the reference reconstruction error distribution (RED) $D_1$ of the baseline behavior. Online detecting: {\fontfamily  {pzd}\fontencoding  {U}\fontseries  {m}\fontshape  {n}\selectfont  \char 174} Monitor the real behavior of the controller and compute the observed reconstruction error distribution (RED) $D_2$. {\fontfamily  {pzd}\fontencoding  {U}\fontseries  {m}\fontshape  {n}\selectfont  \char 175} Statistically test if $D_1$ and $D_2$ are the same distribution. If not, trigger the {\fontfamily  {pzd}\fontencoding  {U}\fontseries  {m}\fontshape  {n}\selectfont  \char 176} response and attack mitigation module.\relax }}{5}{figure.caption.5}}
\newlabel{fig:architecture}{{3}{5}{Overview of our proposed deep temporal model and statistical test based method. Offline profiling: \ding {172} Train a deep learning model with only normal data, to predict the normal behavior of the controller. \ding {173} Collect the reference reconstruction error distribution (RED) $D_1$ of the baseline behavior. Online detecting: \ding {174} Monitor the real behavior of the controller and compute the observed reconstruction error distribution (RED) $D_2$. \ding {175} Statistically test if $D_1$ and $D_2$ are the same distribution. If not, trigger the \ding {176} response and attack mitigation module.\relax }{figure.caption.5}{}}
\citation{malhotra2015long,malhotra2016lstm}
\newlabel{equ:reconstructionerror}{{2}{6}{Offline Training and Reconstruction Error Profiling}{equation.4.2}{}}
\@writefile{toc}{\contentsline {subsection}{\numberline {4.5}Online Hijack Detection and Mitigation}{6}{subsection.4.5}}
\newlabel{sec:solution:online}{{4.5}{6}{Online Hijack Detection and Mitigation}{subsection.4.5}{}}
\@writefile{lof}{\contentsline {figure}{\numberline {4}{\ignorespaces A real histogram example of the reconstruction error distributions of {\fontfamily  {pzd}\fontencoding  {U}\fontseries  {m}\fontshape  {n}\selectfont  \char 172} reference baseline behavior (blue), {\fontfamily  {pzd}\fontencoding  {U}\fontseries  {m}\fontshape  {n}\selectfont  \char 173} testing normal behavior (orange) and {\fontfamily  {pzd}\fontencoding  {U}\fontseries  {m}\fontshape  {n}\selectfont  \char 174} testing abnormal behavior (red). We observe that the distributions of reference (blue) and testing normal (orange) behavior look superimposed, but distinct from the distribution of abnormal (red) behavior.\relax }}{6}{figure.caption.6}}
\newlabel{fig:error-dist}{{4}{6}{A real histogram example of the reconstruction error distributions of \ding {172} reference baseline behavior (blue), \ding {173} testing normal behavior (orange) and \ding {174} testing abnormal behavior (red). We observe that the distributions of reference (blue) and testing normal (orange) behavior look superimposed, but distinct from the distribution of abnormal (red) behavior.\relax }{figure.caption.6}{}}
\@writefile{toc}{\contentsline {subsection}{\numberline {4.6}Anomaly Detection through Reconstruction Error Distribution}{6}{subsection.4.6}}
\newlabel{sec:solution:KS}{{4.6}{6}{Anomaly Detection through Reconstruction Error Distribution}{subsection.4.6}{}}
\newlabel{equ:KSstatistic}{{3}{6}{Anomaly Detection through Reconstruction Error Distribution}{equation.4.3}{}}
\newlabel{equ:KStestinequ}{{4}{6}{Anomaly Detection through Reconstruction Error Distribution}{equation.4.4}{}}
\citation{langner2011stuxnet}
\citation{2015powergridattack}
\@writefile{lof}{\contentsline {figure}{\numberline {5}{\ignorespaces Effectiveness in detecting attacks. Left: REDs in the \textit  {time domain}. Middle: Histograms of REDs. Right: KS statistic $D$. The KS statistic amplifies the differences in the time domain in cases of attacks (rows 2 and 3), while remaining small in the case of normal behavior (row 1).\relax }}{7}{figure.caption.7}}
\newlabel{fig:attack12}{{5}{7}{Effectiveness in detecting attacks. Left: REDs in the \textit {time domain}. Middle: Histograms of REDs. Right: KS statistic $D$. The KS statistic amplifies the differences in the time domain in cases of attacks (rows 2 and 3), while remaining small in the case of normal behavior (row 1).\relax }{figure.caption.7}{}}
\@writefile{toc}{\contentsline {subsection}{\numberline {4.7}System Configuration}{7}{subsection.4.7}}
\newlabel{sec:implementation:config}{{4.7}{7}{System Configuration}{subsection.4.7}{}}
\@writefile{lot}{\contentsline {table}{\numberline {2}{\ignorespaces Threads running on Programmable Logic Controller\relax }}{7}{table.caption.8}}
\newlabel{tab:threads}{{2}{7}{Threads running on Programmable Logic Controller\relax }{table.caption.8}{}}
\@writefile{toc}{\contentsline {section}{\numberline {5}Architecture}{7}{section.5}}
\newlabel{sec:implementation}{{5}{7}{Architecture}{section.5}{}}
\@writefile{toc}{\contentsline {subsection}{\numberline {5.1}Hardware Goals}{7}{subsection.5.1}}
\newlabel{sec:methodology}{{5.1}{7}{Hardware Goals}{subsection.5.1}{}}
\citation{asanovic2016rocket}
\@writefile{lot}{\contentsline {table}{\numberline {3}{\ignorespaces Baseline and attacks against a power-grid PLC\relax }}{8}{table.caption.9}}
\newlabel{tab:attacks}{{3}{8}{Baseline and attacks against a power-grid PLC\relax }{table.caption.9}{}}
\@writefile{lof}{\contentsline {figure}{\numberline {6}{\ignorespaces (a) Detection results of using LSTM and CRBM as the predicting module. LSTM performs better than CRBM. (b) Training mechanism for LSTM and CRBM. LSTM converges faster and achieves higher ultimate accuracy than CRBM.\relax }}{8}{figure.caption.10}}
\newlabel{fig:models}{{6}{8}{(a) Detection results of using LSTM and CRBM as the predicting module. LSTM performs better than CRBM. (b) Training mechanism for LSTM and CRBM. LSTM converges faster and achieves higher ultimate accuracy than CRBM.\relax }{figure.caption.10}{}}
\@writefile{toc}{\contentsline {subsection}{\numberline {5.2}System Architecture}{8}{subsection.5.2}}
\@writefile{toc}{\contentsline {subsection}{\numberline {5.3}Deep Learning Unit}{8}{subsection.5.3}}
\@writefile{lof}{\contentsline {figure}{\numberline {7}{\ignorespaces Integrating DLU to existing system architecture for detection.\relax }}{8}{figure.caption.11}}
\newlabel{img_system_diagram}{{7}{8}{Integrating DLU to existing system architecture for detection.\relax }{figure.caption.11}{}}
\@writefile{lot}{\contentsline {table}{\numberline {4}{\ignorespaces Format of instructions read by the DLU\relax }}{8}{table.caption.12}}
\newlabel{tbl_inst_fmt}{{4}{8}{Format of instructions read by the DLU\relax }{table.caption.12}{}}
\citation{Chen:2014:DSH:2541940.2541967}
\citation{song2018situ}
\@writefile{lot}{\contentsline {table}{\numberline {5}{\ignorespaces Operation modes supported by the DLU\relax }}{9}{table.caption.13}}
\newlabel{tbl_mode_lst}{{5}{9}{Operation modes supported by the DLU\relax }{table.caption.13}{}}
\@writefile{lof}{\contentsline {figure}{\numberline {8}{\ignorespaces Block diagram of a DLU\relax }}{9}{figure.caption.14}}
\newlabel{img_blockdiagram}{{8}{9}{Block diagram of a DLU\relax }{figure.caption.14}{}}
\@writefile{toc}{\contentsline {subsubsection}{\numberline {5.3.1}Support for LSTM Inference}{9}{subsubsection.5.3.1}}
\newlabel{sec_lstm_hwsupport}{{5.3.1}{9}{Support for LSTM Inference}{subsubsection.5.3.1}{}}
\@writefile{lof}{\contentsline {figure}{\numberline {9}{\ignorespaces An LSTM cell (top) and mapping LSTM inference to our FPGA instructions (bottom). \relax }}{9}{figure.caption.15}}
\newlabel{img_lstm_eq_fig}{{9}{9}{An LSTM cell (top) and mapping LSTM inference to our FPGA instructions (bottom). \relax }{figure.caption.15}{}}
\@writefile{toc}{\contentsline {subsubsection}{\numberline {5.3.2}Support for Statistic Test}{9}{subsubsection.5.3.2}}
\newlabel{sec_ks_hwsupport}{{5.3.2}{9}{Support for Statistic Test}{subsubsection.5.3.2}{}}
\@writefile{lof}{\contentsline {figure}{\numberline {10}{\ignorespaces An example of five-step KS test. Two new operation primitives, \textbf  {VSsgt} and \textbf  {Vmaxabs}, are implemented in step {\fontfamily  {pzd}\fontencoding  {U}\fontseries  {m}\fontshape  {n}\selectfont  \char 173} and {\fontfamily  {pzd}\fontencoding  {U}\fontseries  {m}\fontshape  {n}\selectfont  \char 175} to support KS test, respectively.\relax }}{10}{figure.caption.16}}
\newlabel{fig:ks_test}{{10}{10}{An example of five-step KS test. Two new operation primitives, \textbf {VSsgt} and \textbf {Vmaxabs}, are implemented in step \ding {173} and \ding {175} to support KS test, respectively.\relax }{figure.caption.16}{}}
\@writefile{toc}{\contentsline {section}{\numberline {6}Hardware Evaluation}{10}{section.6}}
\@writefile{toc}{\contentsline {subsection}{\numberline {6.1}Performance Evaluation}{10}{subsection.6.1}}
\@writefile{lof}{\contentsline {figure}{\numberline {11}{\ignorespaces Latency evaluation for our proposed architecture.\relax }}{10}{figure.caption.17}}
\newlabel{fig:timing}{{11}{10}{Latency evaluation for our proposed architecture.\relax }{figure.caption.17}{}}
\newlabel{eq:tRED}{{5}{10}{Performance Evaluation}{equation.6.5}{}}
\citation{gao2018deltarnn}
\citation{wang2018c}
\citation{manandhar2014detection}
\citation{valenzuela2013real}
\citation{cardenas2011attacks}
\citation{zhao2014real}
\citation{wang2011security}
\citation{fouda2011lightweight}
\citation{sikdar2011defending}
\citation{dolgikh2012using}
\citation{Chen:2014:DSH:2541940.2541967}
\citation{song2018situ}
\citation{han2017ese}
\citation{wang2018c}
\citation{gao2018deltarnn}
\citation{reagen2016minerva}
\@writefile{lot}{\contentsline {table}{\numberline {6}{\ignorespaces Execution time for model training and inferencing, and KS testing, for detecting controller anomalous behavior. In both implementation, $L=25$ and $N_{EA}=10$.\relax }}{11}{table.caption.18}}
\newlabel{tab:performance}{{6}{11}{Execution time for model training and inferencing, and KS testing, for detecting controller anomalous behavior. In both implementation, $L=25$ and $N_{EA}=10$.\relax }{table.caption.18}{}}
\@writefile{lot}{\contentsline {table}{\numberline {7}{\ignorespaces Hardware statistics compared to RNN accelerators\relax }}{11}{table.caption.19}}
\newlabel{tbl_hw_stats}{{7}{11}{Hardware statistics compared to RNN accelerators\relax }{table.caption.19}{}}
\@writefile{toc}{\contentsline {subsection}{\numberline {6.2}Storage and FPGA requirements}{11}{subsection.6.2}}
\@writefile{toc}{\contentsline {section}{\numberline {7}Related Work}{11}{section.7}}
\newlabel{sec:relatedwork}{{7}{11}{Related Work}{section.7}{}}
\@writefile{toc}{\contentsline {section}{\numberline {8}Conclusion}{11}{section.8}}
\newlabel{sec:conclusion}{{8}{11}{Conclusion}{section.8}{}}
\bibstyle{plain}
\bibdata{anomaly}
\bibcite{PLCdiag}{1}
\bibcite{2015powergridattack}{2}
\bibcite{SCADA}{3}
\bibcite{asanovic2016rocket}{4}
\bibcite{bahador2014hpcmalhunter}{5}
\bibcite{breunig2000lof}{6}
\bibcite{cardenas2011attacks}{7}
\bibcite{Chen:2014:DSH:2541940.2541967}{8}
\bibcite{chen2016diannao}{9}
\bibcite{demme2013feasibility}{10}
\bibcite{dolgikh2012using}{11}
\bibcite{esmaeilzadeh2012neural}{12}
\bibcite{fouda2011lightweight}{13}
\bibcite{gao2018deltarnn}{14}
\bibcite{goldstein2012histogram}{15}
\bibcite{han2017ese}{16}
\bibcite{hochreiter1997long}{17}
\bibcite{humayed2017cyber}{18}
\bibcite{kriegel2008angle}{19}
\bibcite{langner2011stuxnet}{20}
\bibcite{lee2015past}{21}
\bibcite{liu2008isolation}{22}
\bibcite{malhotra2016lstm}{23}
\bibcite{malhotra2015long}{24}
\bibcite{manandhar2014detection}{25}
\bibcite{ozsoy2016hardware}{26}
\bibcite{patel2017analyzing}{27}
\bibcite{rousseeuw1999fast}{28}
\bibcite{scholkopf2001estimating}{29}
\bibcite{sikdar2011defending}{30}
\bibcite{simpson1997introduction}{31}
\bibcite{singh2017detection}{32}
\bibcite{song2018situ}{33}
\bibcite{sridhar2012cyber}{34}
\bibcite{valenzuela2013real}{35}
\bibcite{wang2017dlau}{36}
\bibcite{wang2018c}{37}
\@writefile{toc}{\contentsline {section}{\numberline {9}References}{13}{section.9}}
\bibcite{wang2011security}{38}
\bibcite{wang2016hardware}{39}
\bibcite{wang2013numchecker}{40}
\bibcite{wang2015confirm}{41}
\bibcite{wei2005assumption}{42}
\bibcite{zhao2014real}{43}
