\BOOKMARK [1][-]{section.1}{Introduction}{}% 1
\BOOKMARK [1][-]{section.2}{methodology}{}% 2
\BOOKMARK [1][-]{section.3}{Security Problem and Threat Model}{}% 3
\BOOKMARK [1][-]{section.4}{Deep Learning Algorithm Design for Improving Security}{}% 4
\BOOKMARK [2][-]{subsection.4.1}{Challenges}{section.4}% 5
\BOOKMARK [2][-]{subsection.4.2}{Algorithm Selection}{section.4}% 6
\BOOKMARK [2][-]{subsection.4.3}{Proposed Algorithm}{section.4}% 7
\BOOKMARK [2][-]{subsection.4.4}{Offline Training and Reconstruction Error Profiling}{section.4}% 8
\BOOKMARK [2][-]{subsection.4.5}{Online Hijack Detection and Mitigation}{section.4}% 9
\BOOKMARK [2][-]{subsection.4.6}{Anomaly Detection through Reconstruction Error Distribution}{section.4}% 10
\BOOKMARK [2][-]{subsection.4.7}{System Configuration}{section.4}% 11
\BOOKMARK [1][-]{section.5}{Architecture}{}% 12
\BOOKMARK [2][-]{subsection.5.1}{Hardware Goals}{section.5}% 13
\BOOKMARK [2][-]{subsection.5.2}{System Architecture}{section.5}% 14
\BOOKMARK [2][-]{subsection.5.3}{Deep Learning Unit}{section.5}% 15
\BOOKMARK [3][-]{subsubsection.5.3.1}{Support for LSTM Inference}{subsection.5.3}% 16
\BOOKMARK [3][-]{subsubsection.5.3.2}{Support for Statistic Test}{subsection.5.3}% 17
\BOOKMARK [1][-]{section.6}{Hardware Evaluation}{}% 18
\BOOKMARK [2][-]{subsection.6.1}{Performance Evaluation}{section.6}% 19
\BOOKMARK [2][-]{subsection.6.2}{Storage and FPGA requirements}{section.6}% 20
\BOOKMARK [1][-]{section.7}{Related Work}{}% 21
\BOOKMARK [1][-]{section.8}{Conclusion}{}% 22
\BOOKMARK [1][-]{section.9}{References}{}% 23
